\relax 
\providecommand\hyper@newdestlabel[2]{}
\catcode `:\active 
\catcode `;\active 
\catcode `!\active 
\catcode `?\active 
\providecommand\HyperFirstAtBeginDocument{\AtBeginDocument}
\HyperFirstAtBeginDocument{\ifx\hyper@anchor\@undefined
\global\let\oldcontentsline\contentsline
\gdef\contentsline#1#2#3#4{\oldcontentsline{#1}{#2}{#3}}
\global\let\oldnewlabel\newlabel
\gdef\newlabel#1#2{\newlabelxx{#1}#2}
\gdef\newlabelxx#1#2#3#4#5#6{\oldnewlabel{#1}{{#2}{#3}}}
\AtEndDocument{\ifx\hyper@anchor\@undefined
\let\contentsline\oldcontentsline
\let\newlabel\oldnewlabel
\fi}
\fi}
\global\let\hyper@last\relax 
\gdef\HyperFirstAtBeginDocument#1{#1}
\providecommand\HyField@AuxAddToFields[1]{}
\providecommand\HyField@AuxAddToCoFields[2]{}
\babel@aux{french}{}
\@writefile{toc}{\contentsline {section}{\numberline {1}Question 1}{1}{section.1}}
\@writefile{toc}{\contentsline {section}{\numberline {2}Question 2}{1}{section.2}}
\@writefile{toc}{\contentsline {section}{\numberline {3}Question 3}{1}{section.3}}
\@writefile{lot}{\contentsline {table}{\numberline {1}{\ignorespaces Une configuration de jeu avec un maximum de choix possibles.}}{2}{table.1}}
\newlabel{table:1}{{1}{2}{Une configuration de jeu avec un maximum de choix possibles}{table.1}{}}
\@writefile{lot}{\contentsline {table}{\numberline {2}{\ignorespaces Disposition des cases doubles}}{2}{table.2}}
\newlabel{table:2}{{2}{2}{Disposition des cases doubles}{table.2}{}}
\@writefile{toc}{\contentsline {section}{\numberline {4}Question 4}{3}{section.4}}
\@writefile{lot}{\contentsline {table}{\numberline {3}{\ignorespaces Configuration initiale}}{3}{table.3}}
\newlabel{table:3}{{3}{3}{Configuration initiale}{table.3}{}}
\@writefile{lot}{\contentsline {table}{\numberline {4}{\ignorespaces La suite de coup du coup imparable}}{3}{table.4}}
\newlabel{table:4}{{4}{3}{La suite de coup du coup imparable}{table.4}{}}
\@writefile{lot}{\contentsline {table}{\numberline {5}{\ignorespaces La suite de coup du coup imparable si le joueur noir prenait un choix diff\IeC {\'e}rent au tour 2 de la table 4}}{3}{table.5}}
\newlabel{table:5}{{5}{3}{La suite de coup du coup imparable si le joueur noir prenait un choix différent au tour 2 de la table 4}{table.5}{}}
\@writefile{toc}{\contentsline {section}{\numberline {5}Question 5}{3}{section.5}}
\@writefile{toc}{\contentsline {section}{\numberline {6}Question 6}{4}{section.6}}
\@writefile{toc}{\contentsline {section}{\numberline {7}Question 7}{4}{section.7}}
